{
  "db": {
    "name": "db",
    "connector": "memory"
  },
  "mysqldb": {
    "host": "172.17.0.2",
    "port": 3306,
    "url": "",
    "database": "pixel_art",
    "password": "root",
    "name": "mysqldb",
    "user": "root",
    "connector": "mysql"
  }
}
